{
    "menu": {
         "get_items": {
            "0": {
                "title": "Resource Hub",
                "url": "#",
                "class": "yellow"            
            },
            "1": {
                "title": "About",
                "url": "#",
                "class": "blue"               
            },
            "2": {
                "title": "Words",
                "url": "#",
                "class": "orange"               
            },
            "3": {
                "title": "Say Hi",
                "url": "#",
                "class": "green"                
            },
            "4": {
                "title": "Sign In",
                "url": "#",
                "class": "black"           
            }
        }
    }
}
