{
	"sections":{
		"0":{
			"background": "green",
			"blocks":{
				"0":{
					"size": "half",
					"content":{
						"0":{
							"type": "heading",
							"heading": "Honest pricing",
							"heading_size": "h2"
						},
						"1":{
							"type": "text",
							"text": "<p>We don’t build off the shelf websites, we build bespoke sites based around your brand, your needs and your messaging.</p><p>The only way to give you a price before we’ve spoken would be if we gave every client the same one-size-fits-all service. We believe you and your message deserve better than that.</p><p> We want to be open and transparent about our prices - we probably won’t be the cheapest quote you can find, but we also certainly won’t be the most the expensive.</p>"
						}
					}
				},
				"1":{
					"size": "half",
					"content":{
						"0":{
							"type": "image",
							"image": {
								"url": "https://source.unsplash.com/1400x800?i=1"
							}
						}
					}
				}
			}
		}
	}
}